ForwardTrackChecker                    INFO Results
ForwardTrackChecker                    INFO **** Forward                                    1772 tracks including             56 ghosts [ 3.16 %], Event average  2.12 % ****
ForwardTrackChecker                    INFO   01_long                                  :    1655 from     4757 [ 34.79 %]      0 clones [ 0.00 %], purity: 98.94 %, hitEff: 95.50 %
ForwardTrackChecker                    INFO   02_long_P>5GeV                           :    1379 from     2871 [ 48.03 %]      0 clones [ 0.00 %], purity: 99.15 %, hitEff: 96.05 %
ForwardTrackChecker                    INFO   03_long_strange                          :      22 from      221 [  9.95 %]      0 clones [ 0.00 %], purity:100.00 %, hitEff: 95.68 %
ForwardTrackChecker                    INFO   04_long_strange_P>5GeV                   :      17 from      103 [ 16.50 %]      0 clones [ 0.00 %], purity:100.00 %, hitEff: 94.41 %
ForwardTrackChecker                    INFO   05_long_fromB                            :      20 from       30 [ 66.67 %]      0 clones [ 0.00 %], purity: 97.29 %, hitEff: 89.52 %
ForwardTrackChecker                    INFO   05_long_fromD                            :      26 from       67 [ 38.81 %]      0 clones [ 0.00 %], purity: 97.74 %, hitEff: 93.09 %
ForwardTrackChecker                    INFO   06_long_fromB_P>5GeV                     :      20 from       21 [ 95.24 %]      0 clones [ 0.00 %], purity: 97.29 %, hitEff: 89.52 %
ForwardTrackChecker                    INFO   06_long_fromD_P>5GeV                     :      25 from       47 [ 53.19 %]      0 clones [ 0.00 %], purity: 97.83 %, hitEff: 92.82 %
ForwardTrackChecker                    INFO   07_long_electrons                        :       2 from      332 [  0.60 %]      0 clones [ 0.00 %], purity:100.00 %, hitEff:100.00 %
ForwardTrackChecker                    INFO   10_long_fromB_P>3GeV_Pt>0.5GeV           :      20 from       20 [100.00 %]      0 clones [ 0.00 %], purity: 97.29 %, hitEff: 89.52 %
ForwardTrackChecker                    INFO   10_long_fromD_P>3GeV_Pt>0.5GeV           :      26 from       26 [100.00 %]      0 clones [ 0.00 %], purity: 97.74 %, hitEff: 93.09 %
ForwardTrackChecker                    INFO   10_long_strange_P>3GeV_Pt>0.5GeV         :      21 from       28 [ 75.00 %]      0 clones [ 0.00 %], purity:100.00 %, hitEff: 95.47 %
ForwardTrackChecker                    INFO   11_UT_long_fromB_P>3GeV_Pt>0.5GeV        :      20 from       20 [100.00 %]      0 clones [ 0.00 %], purity: 97.29 %, hitEff: 89.52 %
ForwardTrackChecker                    INFO
ForwardUTHitsChecker                   INFO Results
ForwardUTHitsChecker                   INFO **** UT Efficiency for /Event/LHCb__Converters__Track__v1__fromV2TrackV1Track#2/OutputTracksName ****      56 ghost,  4.20 UT per track
ForwardUTHitsChecker                   INFO                                  01_long :  1655 tr  4.06 from  4.64 mcUT [ 87.5 %]  0.04 ghost hits on real tracks [ 0.9 %]
ForwardUTHitsChecker                   INFO                             01_long >3UT :  1655 tr  4.06 from  4.64 mcUT [ 87.5 %]  0.04 ghost hits on real tracks [ 0.9 %]
ForwardUTHitsChecker                   INFO                           02_long_P>5GeV :  1379 tr  4.07 from  4.61 mcUT [ 88.3 %]  0.04 ghost hits on real tracks [ 0.9 %]
ForwardUTHitsChecker                   INFO                      02_long_P>5GeV >3UT :  1379 tr  4.07 from  4.61 mcUT [ 88.3 %]  0.04 ghost hits on real tracks [ 0.9 %]
ForwardUTHitsChecker                   INFO           03_long_fromB_P>3GeV_Pt>0.5GeV :    20 tr  4.15 from  5.20 mcUT [ 79.8 %]  0.15 ghost hits on real tracks [ 3.5 %]
ForwardUTHitsChecker                   INFO      03_long_fromB_P>3GeV_Pt>0.5GeV >3UT :    20 tr  4.15 from  5.20 mcUT [ 79.8 %]  0.15 ghost hits on real tracks [ 3.5 %]
ForwardUTHitsChecker                   INFO        04_UT_long_fromB_P>3GeV_Pt>0.5GeV :    20 tr  4.15 from  5.20 mcUT [ 79.8 %]  0.15 ghost hits on real tracks [ 3.5 %]
ForwardUTHitsChecker                   INFO   04_UT_long_fromB_P>3GeV_Pt>0.5GeV >3UT :    20 tr  4.15 from  5.20 mcUT [ 79.8 %]  0.15 ghost hits on real tracks [ 3.5 %]
ForwardUTHitsChecker                   INFO
UpstreamTrackChecker                   INFO Results
UpstreamTrackChecker                   INFO **** Upstream                                   2923 tracks including            173 ghosts [ 5.92 %], Event average  4.75 % ****
UpstreamTrackChecker                   INFO   01_velo                                  :    2665 from     8700 [ 30.63 %]     10 clones [ 0.37 %], purity: 99.51 %, hitEff: 89.45 %
UpstreamTrackChecker                   INFO   02_velo+UT                               :    2653 from     7485 [ 35.44 %]     10 clones [ 0.38 %], purity: 99.55 %, hitEff: 89.41 %
UpstreamTrackChecker                   INFO   03_velo+UT_P>5GeV                        :    2031 from     3494 [ 58.13 %]      5 clones [ 0.25 %], purity: 99.66 %, hitEff: 90.97 %
UpstreamTrackChecker                   INFO   04_velo+notLong                          :     527 from     3943 [ 13.37 %]     10 clones [ 1.86 %], purity: 99.20 %, hitEff: 89.26 %
UpstreamTrackChecker                   INFO   05_velo+UT+notLong                       :     515 from     2781 [ 18.52 %]     10 clones [ 1.90 %], purity: 99.39 %, hitEff: 89.01 %
UpstreamTrackChecker                   INFO   06_velo+UT+notLong_P>5GeV                :     332 from      668 [ 49.70 %]      5 clones [ 1.48 %], purity: 99.68 %, hitEff: 92.71 %
UpstreamTrackChecker                   INFO   07_long                                  :    2138 from     4757 [ 44.94 %]      0 clones [ 0.00 %], purity: 99.59 %, hitEff: 89.50 %
UpstreamTrackChecker                   INFO   07_long_strange                          :      48 from      221 [ 21.72 %]      0 clones [ 0.00 %], purity: 99.31 %, hitEff: 88.38 %
UpstreamTrackChecker                   INFO   08_long_P>5GeV                           :    1699 from     2871 [ 59.18 %]      0 clones [ 0.00 %], purity: 99.65 %, hitEff: 90.63 %
UpstreamTrackChecker                   INFO   08_long_strange_P>5GeV                   :      34 from      103 [ 33.01 %]      0 clones [ 0.00 %], purity:100.00 %, hitEff: 95.49 %
UpstreamTrackChecker                   INFO   09_long_fromB                            :      23 from       30 [ 76.67 %]      0 clones [ 0.00 %], purity: 99.28 %, hitEff: 86.34 %
UpstreamTrackChecker                   INFO   09_long_fromD                            :      34 from       67 [ 50.75 %]      0 clones [ 0.00 %], purity: 99.51 %, hitEff: 88.66 %
UpstreamTrackChecker                   INFO   10_long_fromB_P>5GeV                     :      20 from       21 [ 95.24 %]      0 clones [ 0.00 %], purity: 99.17 %, hitEff: 84.29 %
UpstreamTrackChecker                   INFO   10_long_fromD_P>5GeV                     :      30 from       47 [ 63.83 %]      0 clones [ 0.00 %], purity: 99.44 %, hitEff: 87.14 %
UpstreamTrackChecker                   INFO   11_long_electrons                        :      12 from      332 [  3.61 %]      0 clones [ 0.00 %], purity: 99.24 %, hitEff: 96.25 %
UpstreamTrackChecker                   INFO   14_long_fromB_P>3GeV_Pt>0.5GeV           :      20 from       20 [100.00 %]      0 clones [ 0.00 %], purity: 99.17 %, hitEff: 84.29 %
UpstreamTrackChecker                   INFO   14_long_fromD_P>3GeV_Pt>0.5GeV           :      26 from       26 [100.00 %]      0 clones [ 0.00 %], purity: 99.36 %, hitEff: 85.16 %
UpstreamTrackChecker                   INFO   14_long_strange_P>3GeV_Pt>0.5GeV         :      26 from       28 [ 92.86 %]      0 clones [ 0.00 %], purity:100.00 %, hitEff: 90.26 %
UpstreamTrackChecker                   INFO   15_UT_long_fromB_P>3GeV_Pt>0.5GeV        :      20 from       20 [100.00 %]      0 clones [ 0.00 %], purity: 99.17 %, hitEff: 84.29 %
UpstreamTrackChecker                   INFO
VeloTrackChecker                       INFO Results
VeloTrackChecker                       INFO **** Velo                                      19690 tracks including            194 ghosts [ 0.99 %], Event average  0.76 % ****
VeloTrackChecker                       INFO   01_velo                                  :    8520 from     8700 [ 97.93 %]    151 clones [ 1.74 %], purity: 99.77 %, hitEff: 96.59 %, hitEffFirst3: 96.46 %, hitEffLast: 96.42 %
VeloTrackChecker                       INFO   02_long                                  :    4723 from     4757 [ 99.29 %]     61 clones [ 1.28 %], purity: 99.93 %, hitEff: 97.76 %, hitEffFirst3: 97.83 %, hitEffLast: 97.46 %
VeloTrackChecker                       INFO   03_long_P>5GeV                           :    2860 from     2871 [ 99.62 %]     21 clones [ 0.73 %], purity: 99.92 %, hitEff: 98.66 %, hitEffFirst3: 98.35 %, hitEffLast: 98.69 %
VeloTrackChecker                       INFO   04_long_strange                          :     218 from      221 [ 98.64 %]      0 clones [ 0.00 %], purity:100.00 %, hitEff: 98.55 %, hitEffFirst3: 98.62 %, hitEffLast: 97.42 %
VeloTrackChecker                       INFO   05_long_strange_P>5GeV                   :     101 from      103 [ 98.06 %]      0 clones [ 0.00 %], purity:100.00 %, hitEff: 98.75 %, hitEffFirst3: 97.36 %, hitEffLast: 98.67 %
VeloTrackChecker                       INFO   06_long_fromB                            :      30 from       30 [100.00 %]      0 clones [ 0.00 %], purity:100.00 %, hitEff:100.00 %, hitEffFirst3:100.00 %, hitEffLast:100.00 %
VeloTrackChecker                       INFO   06_long_fromD                            :      67 from       67 [100.00 %]      0 clones [ 0.00 %], purity:100.00 %, hitEff: 99.25 %, hitEffFirst3: 98.51 %, hitEffLast:100.00 %
VeloTrackChecker                       INFO   07_long_fromB_P>5GeV                     :      21 from       21 [100.00 %]      0 clones [ 0.00 %], purity:100.00 %, hitEff:100.00 %, hitEffFirst3:100.00 %, hitEffLast:100.00 %
VeloTrackChecker                       INFO   07_long_fromD_P>5GeV                     :      47 from       47 [100.00 %]      0 clones [ 0.00 %], purity:100.00 %, hitEff: 98.94 %, hitEffFirst3: 97.87 %, hitEffLast:100.00 %
VeloTrackChecker                       INFO   08_long_electrons                        :     324 from      332 [ 97.59 %]     11 clones [ 3.28 %], purity: 97.90 %, hitEff: 92.76 %, hitEffFirst3: 88.76 %, hitEffLast: 93.16 %
VeloTrackChecker                       INFO   11_long_fromB_P>3GeV_Pt>0.5GeV           :      20 from       20 [100.00 %]      0 clones [ 0.00 %], purity:100.00 %, hitEff:100.00 %, hitEffFirst3:100.00 %, hitEffLast:100.00 %
VeloTrackChecker                       INFO   11_long_fromD_P>3GeV_Pt>0.5GeV           :      26 from       26 [100.00 %]      0 clones [ 0.00 %], purity:100.00 %, hitEff: 98.08 %, hitEffFirst3: 96.15 %, hitEffLast:100.00 %
VeloTrackChecker                       INFO   11_long_strange_P>3GeV_Pt>0.5GeV         :      26 from       28 [ 92.86 %]      0 clones [ 0.00 %], purity:100.00 %, hitEff: 98.52 %, hitEffFirst3: 93.59 %, hitEffLast:100.00 %
VeloTrackChecker                       INFO   12_UT_long_fromB_P>3GeV_Pt>0.5GeV        :      20 from       20 [100.00 %]      0 clones [ 0.00 %], purity:100.00 %, hitEff:100.00 %, hitEffFirst3:100.00 %, hitEffLast:100.00 %
VeloTrackChecker                       INFO
PrimaryVertexChecker                   INFO      ************************************
PrimaryVertexChecker                   INFO  MC PV is reconstructible if at least 4  tracks are reconstructed
PrimaryVertexChecker                   INFO  MC PV is isolated if dz to closest reconstructible MC PV >  10 mm
PrimaryVertexChecker                   INFO  MC efficiency split by tracks with threshold: (4,10), >= 10
PrimaryVertexChecker                   INFO  MC efficiency split by z position: <-50, (-50,50), >50
PrimaryVertexChecker                   INFO  REC and MC vertices matched:  by distance
PrimaryVertexChecker                   INFO
PrimaryVertexChecker                   INFO 00 all                    :      387 from      406 (     617-211     ) [ 95.32 %], false    0 from reco.      387 (     387+0   ) [  0.00 %]
PrimaryVertexChecker                   INFO 01 isolated               :      261 from      268 (     388-120     ) [ 97.39 %], false    0 from reco.      261 (     261+0   ) [  0.00 %]
PrimaryVertexChecker                   INFO 02 close                  :      126 from      138 (     229-91      ) [ 91.30 %], false    0 from reco.      126 (     126+0   ) [  0.00 %]
PrimaryVertexChecker                   INFO 03 ntracks<10             :       40 from       53 (      53-0       ) [ 75.47 %], false    0 from reco.       40 (      40+0   ) [  0.00 %]
PrimaryVertexChecker                   INFO 04 ntracks>=10            :      347 from      353 (     353-0       ) [ 98.30 %], false    0 from reco.      347 (     347+0   ) [  0.00 %]
PrimaryVertexChecker                   INFO 05 z<-50.0                :      109 from      109 (     150-41      ) [ 100.00 %], false    0 from reco.      109 (     109+0   ) [  0.00 %]
PrimaryVertexChecker                   INFO 06 z in (-50.0, 50.0)     :      197 from      208 (     323-115     ) [ 94.71 %], false    0 from reco.      197 (     197+0   ) [  0.00 %]
PrimaryVertexChecker                   INFO 07 z >=50.0               :       81 from       89 (     144-55      ) [ 91.01 %], false    0 from reco.       81 (      81+0   ) [  0.00 %]
PrimaryVertexChecker                   INFO 08 decayBeauty            :       10 from       10 (      10-0       ) [ 100.00 %], false    0 from reco.       10 (      10+0   ) [  0.00 %]
PrimaryVertexChecker                   INFO 09 decayCharm             :       72 from       72 (      72-0       ) [ 100.00 %], false    0 from reco.       72 (      72+0   ) [  0.00 %]
PrimaryVertexChecker                   INFO 10 decayStrange           :      387 from      406 (     444-38      ) [ 95.32 %], false    0 from reco.      387 (     387+0   ) [  0.00 %]
PrimaryVertexChecker                   INFO 11 other                  :        0 from        0 (     173-173     ) [ -100.00 %], false    0 from reco.        0 (       0+0   ) [ -100.00 %]
PrimaryVertexChecker                   INFO 12 1MCPV                  :       89 from       89 (      89-0       ) [ 100.00 %], false    0 from reco.       89 (      89+0   ) [  0.00 %]
PrimaryVertexChecker                   INFO 13 2MCPV                  :       83 from       83 (      89-6       ) [ 100.00 %], false    0 from reco.       83 (      83+0   ) [  0.00 %]
PrimaryVertexChecker                   INFO 14 3MCPV                  :       71 from       71 (      83-12      ) [ 100.00 %], false    0 from reco.       71 (      71+0   ) [  0.00 %]
PrimaryVertexChecker                   INFO 15 4MCPV                  :       59 from       65 (      80-15      ) [ 90.77 %], false    0 from reco.       59 (      59+0   ) [  0.00 %]
PrimaryVertexChecker                   INFO 16 5MCPV                  :       39 from       39 (      78-39      ) [ 100.00 %], false    0 from reco.       39 (      39+0   ) [  0.00 %]
PrimaryVertexChecker                   INFO
PrimaryVertexChecker                   INFO 00 all                    : av. PV tracks:  37.32 [MC:  40.80]
PrimaryVertexChecker                   INFO 01 isolated               : av. PV tracks:  36.38 [MC:  40.63]
PrimaryVertexChecker                   INFO 02 close                  : av. PV tracks:  39.25 [MC:  41.13]
PrimaryVertexChecker                   INFO 03 ntracks<10             : av. PV tracks:   7.10 [MC:   6.02]
PrimaryVertexChecker                   INFO 04 ntracks>=10            : av. PV tracks:  40.80 [MC:  46.02]
PrimaryVertexChecker                   INFO 05 z<-50.0                : av. PV tracks:  30.87 [MC:  34.40]
PrimaryVertexChecker                   INFO 06 z in (-50.0, 50.0)     : av. PV tracks:  41.15 [MC:  44.97]
PrimaryVertexChecker                   INFO 07 z >=50.0               : av. PV tracks:  36.67 [MC:  38.89]
PrimaryVertexChecker                   INFO 08 decayBeauty            : av. PV tracks:  54.80 [MC:  58.80]
PrimaryVertexChecker                   INFO 09 decayCharm             : av. PV tracks:  61.85 [MC:  69.28]
PrimaryVertexChecker                   INFO 10 decayStrange           : av. PV tracks:  37.32 [MC:  40.80]
PrimaryVertexChecker                   INFO 11 other                  : av. PV tracks:   0.00 [MC:   0.00]
PrimaryVertexChecker                   INFO 12 1MCPV                  : av. PV tracks:  74.83 [MC:  86.17]
PrimaryVertexChecker                   INFO 13 2MCPV                  : av. PV tracks:  41.47 [MC:  46.55]
PrimaryVertexChecker                   INFO 14 3MCPV                  : av. PV tracks:  29.30 [MC:  34.11]
PrimaryVertexChecker                   INFO 15 4MCPV                  : av. PV tracks:  18.46 [MC:  19.65]
PrimaryVertexChecker                   INFO 16 5MCPV                  : av. PV tracks:  15.67 [MC:  16.77]
PrimaryVertexChecker                   INFO
PrimaryVertexChecker                   INFO 1_res_all                 :  x: +0.013, y: +0.015, z: +0.072
PrimaryVertexChecker                   INFO 2_res_ntracks<10          :  x: +0.025, y: +0.033, z: +0.112
PrimaryVertexChecker                   INFO 3_res_ntracks(10,30)      :  x: +0.014, y: +0.014, z: +0.084
PrimaryVertexChecker                   INFO 4_res_ntracks>30          :  x: +0.006, y: +0.007, z: +0.039
PrimaryVertexChecker                   INFO 5_res_z<-50               :  x: +0.016, y: +0.017, z: +0.081
PrimaryVertexChecker                   INFO 6_res_z(-50,50)           :  x: +0.010, y: +0.016, z: +0.072
PrimaryVertexChecker                   INFO 7_res_z>50                :  x: +0.014, y: +0.011, z: +0.058
PrimaryVertexChecker                   INFO
PrimaryVertexChecker                   INFO 1_pull_width_all          :  x: +0.873, y: +0.978, z: +0.941
PrimaryVertexChecker                   INFO 1_pull_mean_all           :  x: -0.044, y: +0.112, z: -0.030
PrimaryVertexChecker                   INFO
TransportSvc                        SUCCESS  GEOMETRY ERRORS: 'Skip'     map has the size 0
TransportSvc                        SUCCESS  GEOMETRY ERRORS: 'Recover'  map has the size 0
TransportSvc                        SUCCESS  GEOMETRY ERRORS: 'Codes'    map has the size 0
TransportSvc                           INFO Reset the static pointer to DetDesc::IGeometyrErrorSvc
ToolSvc                                INFO Removing all tools created by ToolSvc
ApplicationMgr                         INFO Application Manager Finalized successfully
ApplicationMgr                         INFO Application Manager Terminated successfully
ForwardTrackChecker.LoKi::Hybrid...    INFO Number of counters : 1
 |    Counter                                      |     #     |    sum     | mean/eff^* | rms/err^*  |     min     |     max     |
 | "# loaded from PYTHON"                          |        16 |
ForwardUTHitsChecker.LoKi::Hybri...    INFO Number of counters : 1
 |    Counter                                      |     #     |    sum     | mean/eff^* | rms/err^*  |     min     |     max     |
 | "# loaded from PYTHON"                          |         4 |
MuonIDHlt1AlgPr                        INFO Number of counters : 5
 |    Counter                                      |     #     |    sum     | mean/eff^* | rms/err^*  |     min     |     max     |
 | "nGoodOffline"                                  |      1772 |
 | "nInAcceptance"                                 |      1631 |
 | "nIsMuon"                                       |       167 |
 | "nIsMuonTight"                                  |       119 |
 | "nMomentumCut"                                  |      1756 |
PrGECFilter                            INFO Number of counters : 2
 |    Counter                                      |     #     |    sum     | mean/eff^* | rms/err^*  |     min     |     max     |
 | "Nb Events Processed"                           |       100 |
 | "Nb events removed"                             |        11 |
PrLHCbID2MCParticle                    INFO Number of counters : 1
 |    Counter                                      |     #     |    sum     | mean/eff^* | rms/err^*  |     min     |     max     |
 | "#removed null MCParticles"                     |    630631 |          0 |     0.0000 |
PrStorePrUTHits                        INFO Number of counters : 1
 |    Counter                                      |     #     |    sum     | mean/eff^* | rms/err^*  |     min     |     max     |
 | "#banks"                                        |        89 |      19224 |     216.00 |
PrStoreUTHit                           INFO Number of counters : 1
 |    Counter                                      |     #     |    sum     | mean/eff^* | rms/err^*  |     min     |     max     |
 | "#banks"                                        |        89 |      19224 |     216.00 |
PrTrackAssociator                      INFO Number of counters : 2
 |    Counter                                      |     #     |    sum     | mean/eff^* | rms/err^*  |     min     |     max     |
 |*"Efficiency"                                    |      1772 |       1716 |( 96.83973 +- 0.4155823)% |
 | "MC particles per track"                        |      1716 |       1981 |     1.1544 |
PrTrackAssociator#1                    INFO Number of counters : 2
 |    Counter                                      |     #     |    sum     | mean/eff^* | rms/err^*  |     min     |     max     |
 |*"Efficiency"                                    |      2923 |       2750 |( 94.08142 +- 0.4364617)% |
 | "MC particles per track"                        |      2750 |       2750 |     1.0000 |
PrTrackAssociator#2                    INFO Number of counters : 2
 |    Counter                                      |     #     |    sum     | mean/eff^* | rms/err^*  |     min     |     max     |
 |*"Efficiency"                                    |     19690 |      19496 |( 99.01473 +- 0.07038904)% |
 | "MC particles per track"                        |     19496 |      19555 |     1.0030 |
PrVeloUT                               INFO Number of counters : 2
 |    Counter                                      |     #     |    sum     | mean/eff^* | rms/err^*  |     min     |     max     |
 | "#seeds"                                        |        89 |      12497 |     140.42 |
 | "#tracks"                                       |        89 |       2923 |     32.843 |
PrimaryVertexChecker                   INFO Number of counters : 1
 |    Counter                                      |     #     |    sum     | mean/eff^* | rms/err^*  |     min     |     max     |
 | "nEvents"                                       |        89 |
SciFiTrackForwarding                   INFO Number of counters : 2
 |    Counter                                      |     #     |    sum     | mean/eff^* | rms/err^*  |     min     |     max     |
 | "2nd Loop"                                      |      1397 |
 | "Created long tracks"                           |        89 |       1772 |     19.910 |
TrackBeamLineVertexFinderSoA           INFO Number of counters : 1
 |    Counter                                      |     #     |    sum     | mean/eff^* | rms/err^*  |     min     |     max     |
 | "Nb PVs"                                        |        89 |        387 |     4.3483 |
TracksFTConverter                      INFO Number of counters : 1
 |    Counter                                      |     #     |    sum     | mean/eff^* | rms/err^*  |     min     |     max     |
 | "Nb of Produced Tracks"                         |        89 |       1772 |     19.910 |
TracksUTConverter                      INFO Number of counters : 1
 |    Counter                                      |     #     |    sum     | mean/eff^* | rms/err^*  |     min     |     max     |
 | "Nb of Produced Tracks"                         |        89 |       2923 |     32.843 |
TracksVPMergerConverter                INFO Number of counters : 1
 |    Counter                                      |     #     |    sum     | mean/eff^* | rms/err^*  |     min     |     max     |
 | "Nb of Produced Tracks"                         |        89 |      19690 |     221.24 |
UpstreamTrackChecker.LoKi::Hybri...    INFO Number of counters : 1
 |    Counter                                      |     #     |    sum     | mean/eff^* | rms/err^*  |     min     |     max     |
 | "# loaded from PYTHON"                          |        22 |
VeloClusterTrackingSIMD                INFO Number of counters : 2
 |    Counter                                      |     #     |    sum     | mean/eff^* | rms/err^*  |     min     |     max     |
 | "Nb of Produced Clusters"                       |        89 |     155261 |     1744.5 |
 | "Nb of Produced Tracks"                         |        89 |      19690 |     221.24 |
VeloKalman                             INFO Number of counters : 1
 |    Counter                                      |     #     |    sum     | mean/eff^* | rms/err^*  |     min     |     max     |
 | "Nb of Produced Tracks"                         |        89 |       1772 |     19.910 |
VeloTrackChecker.LoKi::Hybrid::M...    INFO Number of counters : 1
 |    Counter                                      |     #     |    sum     | mean/eff^* | rms/err^*  |     min     |     max     |
 | "# loaded from PYTHON"                          |        17 |
