FutureCellularAutomatonAlg             INFO Built <204.081> cellular automaton clusters/event  with <3.60465> iterations (min,max)=(2,5) on average
CaloHypoResolution-clusDef-pi0Def   SUCCESS Booked 1 N-Tuples and 0 Event Tag Collections
CaloHypoResolution-clusDef-pi0Def   SUCCESS List of booked N-Tuples in directory "FILE1/CaloHypoResolution-clusDef-pi0Def"
CaloHypoResolution-clusDef-pi0Def   SUCCESS  ID=pi0-clusDef-pi0DefTitle="pi0-clusDef-pi0Def"                      #items=10 {maxMatchFraction,energy,energyCluster,xCluster,yCluster,zCluster,xExtrap,yExtrap,}
CaloHypoResolution-clusSOFast-pi... SUCCESS Booked 1 N-Tuples and 0 Event Tag Collections
CaloHypoResolution-clusSOFast-pi... SUCCESS List of booked N-Tuples in directory "FILE1/CaloHypoResolution-clusSOFast-pi0Def"
CaloHypoResolution-clusSOFast-pi... SUCCESS  ID=pi0-clusSOFast-pi0DefTitle="pi0-clusSOFast-pi0Def"                   #items=10 {maxMatchFraction,energy,energyCluster,xCluster,yCluster,zCluster,xExtrap,yExtrap,}
CaloHypoResolution-clusSONoCor-p... SUCCESS Booked 1 N-Tuples and 0 Event Tag Collections
CaloHypoResolution-clusSONoCor-p... SUCCESS List of booked N-Tuples in directory "FILE1/CaloHypoResolution-clusSONoCor-pi0Def"
CaloHypoResolution-clusSONoCor-p... SUCCESS  ID=pi0-clusSONoCor-pi0DefTitle="pi0-clusSONoCor-pi0Def"                  #items=10 {maxMatchFraction,energy,energyCluster,xCluster,yCluster,zCluster,xExtrap,yExtrap,}
CaloHypoResolution-clusSONoCor-p... SUCCESS Booked 1 N-Tuples and 0 Event Tag Collections
CaloHypoResolution-clusSONoCor-p... SUCCESS List of booked N-Tuples in directory "FILE1/CaloHypoResolution-clusSONoCor-pi0NoSO"
CaloHypoResolution-clusSONoCor-p... SUCCESS  ID=pi0-clusSONoCor-pi0NoSOTitle="pi0-clusSONoCor-pi0NoSO"                 #items=10 {maxMatchFraction,energy,energyCluster,xCluster,yCluster,zCluster,xExtrap,yExtrap,}
CaloHypoResolution-clusSONoCor-p... SUCCESS Booked 1 N-Tuples and 0 Event Tag Collections
CaloHypoResolution-clusSONoCor-p... SUCCESS List of booked N-Tuples in directory "FILE1/CaloHypoResolution-clusSONoCor-pi0SOFast"
CaloHypoResolution-clusSONoCor-p... SUCCESS  ID=pi0-clusSONoCor-pi0SOFastTitle="pi0-clusSONoCor-pi0SOFast"               #items=10 {maxMatchFraction,energy,energyCluster,xCluster,yCluster,zCluster,xExtrap,yExtrap,}
CaloHypoResolution-clusSONoCor-p... SUCCESS Booked 1 N-Tuples and 0 Event Tag Collections
CaloHypoResolution-clusSONoCor-p... SUCCESS List of booked N-Tuples in directory "FILE1/CaloHypoResolution-clusSONoCor-pi0SONoCor"
CaloHypoResolution-clusSONoCor-p... SUCCESS  ID=pi0-clusSONoCor-pi0SONoCorTitle="pi0-clusSONoCor-pi0SONoCor"              #items=10 {maxMatchFraction,energy,energyCluster,xCluster,yCluster,zCluster,xExtrap,yExtrap,}
CaloHypoResolution-clusNoSO-pi0Def  SUCCESS Booked 1 N-Tuples and 0 Event Tag Collections
CaloHypoResolution-clusNoSO-pi0Def  SUCCESS List of booked N-Tuples in directory "FILE1/CaloHypoResolution-clusNoSO-pi0Def"
CaloHypoResolution-clusNoSO-pi0Def  SUCCESS  ID=pi0-clusNoSO-pi0DefTitle="pi0-clusNoSO-pi0Def"                     #items=10 {maxMatchFraction,energy,energyCluster,xCluster,yCluster,zCluster,xExtrap,yExtrap,}
CaloHypoResolution-clusNoSO-pi0NoSO SUCCESS Booked 1 N-Tuples and 0 Event Tag Collections
CaloHypoResolution-clusNoSO-pi0NoSO SUCCESS List of booked N-Tuples in directory "FILE1/CaloHypoResolution-clusNoSO-pi0NoSO"
CaloHypoResolution-clusNoSO-pi0NoSO SUCCESS  ID=pi0-clusNoSO-pi0NoSOTitle="pi0-clusNoSO-pi0NoSO"                    #items=10 {maxMatchFraction,energy,energyCluster,xCluster,yCluster,zCluster,xExtrap,yExtrap,}
CaloHypoResolution-clusDef-pi0NoCor SUCCESS Booked 1 N-Tuples and 0 Event Tag Collections
CaloHypoResolution-clusDef-pi0NoCor SUCCESS List of booked N-Tuples in directory "FILE1/CaloHypoResolution-clusDef-pi0NoCor"
CaloHypoResolution-clusDef-pi0NoCor SUCCESS  ID=pi0-clusDef-pi0NoCorTitle="pi0-clusDef-pi0NoCor"                    #items=10 {maxMatchFraction,energy,energyCluster,xCluster,yCluster,zCluster,xExtrap,yExtrap,}
ToolSvc                                INFO Removing all tools created by ToolSvc
RFileCnv                               INFO dumping contents of /NTUPLES/FILE1
TFile: name=outputfile_calo_res_pi0.root, title=Gaudi Trees, option=CREATE
NTupleSvc                              INFO NTuples saved successfully
ApplicationMgr                         INFO Application Manager Finalized successfully
ApplicationMgr                         INFO Application Manager Terminated successfully
CaloClusterMCTruth                     INFO Number of counters : 2
 |    Counter                                      |     #     |    sum     | mean/eff^* | rms/err^*  |     min     |     max     |
 | "#CC2MC links"                                  |        86 |     469135 |     5455.1 |
 |*"No MC information for the cluster is found"    |     17551 |         44 |( 0.250698 +- 0.03774674)% |
CaloFutureClusterCovarianceAlg         INFO Number of counters : 1
 |    Counter                                      |     #     |    sum     | mean/eff^* | rms/err^*  |     min     |     max     |
 | "# clusters"                                    |        86 |
CaloFutureClusterCovarianceAlg.E...    INFO Number of counters : 1
 |    Counter                                      |     #     |    sum     | mean/eff^* | rms/err^*  |     min     |     max     |
 | "parameter updated"                             |         2 |
CaloFutureClusterCovarianceAlg.E...    INFO Number of counters : 3
 |    Counter                                      |     #     |    sum     | mean/eff^* | rms/err^*  |     min     |     max     |
 | "Corrected Clusters: # cells "                  |      1212 |       6202 |     5.1172 |     1.8476 |      2.0000 |      16.000 |
 | "Corrected Clusters: ET"                        |      1212 |     353816 |     291.93 |     327.00 |      31.800 |      4361.4 |
 | "Corrected Clusters: size ratio"                |      1212 |   459.2615 |    0.37893 |     0.2852 | -1.8362e-16 |      2.7984 |
CaloFutureClusterCovarianceAlgNo...    INFO Number of counters : 1
 |    Counter                                      |     #     |    sum     | mean/eff^* | rms/err^*  |     min     |     max     |
 | "# clusters"                                    |        86 |
CaloFutureClusterCovarianceAlgNo...    INFO Number of counters : 1
 |    Counter                                      |     #     |    sum     | mean/eff^* | rms/err^*  |     min     |     max     |
 | "parameter updated"                             |         2 |
CaloFutureClusterCovarianceAlgNo...    INFO Number of counters : 3
 |    Counter                                      |     #     |    sum     | mean/eff^* | rms/err^*  |     min     |     max     |
 | "Corrected Clusters: # cells "                  |      1268 |       6587 |     5.1948 |     1.8752 |      2.0000 |      16.000 |
 | "Corrected Clusters: ET"                        |      1268 |   365299.9 |     288.09 |     333.46 |      31.800 |      4363.4 |
 | "Corrected Clusters: size ratio"                |      1268 |   470.5775 |    0.37112 |    0.27637 | -1.8362e-16 |      2.7984 |
CaloFutureClusterCovarianceAlgOv...    INFO Number of counters : 1
 |    Counter                                      |     #     |    sum     | mean/eff^* | rms/err^*  |     min     |     max     |
 | "# clusters"                                    |        86 |
CaloFutureClusterCovarianceAlgOv...    INFO Number of counters : 1
 |    Counter                                      |     #     |    sum     | mean/eff^* | rms/err^*  |     min     |     max     |
 | "parameter updated"                             |         2 |
CaloFutureClusterCovarianceAlgOv...    INFO Number of counters : 3
 |    Counter                                      |     #     |    sum     | mean/eff^* | rms/err^*  |     min     |     max     |
 | "Corrected Clusters: # cells "                  |      1212 |       6202 |     5.1172 |     1.8476 |      2.0000 |      16.000 |
 | "Corrected Clusters: ET"                        |      1212 |     353816 |     291.93 |     327.00 |      31.800 |      4361.4 |
 | "Corrected Clusters: size ratio"                |      1212 |   459.2624 |    0.37893 |     0.2852 | -1.8362e-16 |      2.7984 |
CaloFutureClusterCovarianceAlgOv...    INFO Number of counters : 1
 |    Counter                                      |     #     |    sum     | mean/eff^* | rms/err^*  |     min     |     max     |
 | "# clusters"                                    |        86 |
CaloFutureClusterCovarianceAlgOv...    INFO Number of counters : 1
 |    Counter                                      |     #     |    sum     | mean/eff^* | rms/err^*  |     min     |     max     |
 | "parameter updated"                             |         2 |
CaloFutureClusterCovarianceAlgOv...    INFO Number of counters : 3
 |    Counter                                      |     #     |    sum     | mean/eff^* | rms/err^*  |     min     |     max     |
 | "Corrected Clusters: # cells "                  |      1212 |       6202 |     5.1172 |     1.8476 |      2.0000 |      16.000 |
 | "Corrected Clusters: ET"                        |      1212 |     353816 |     291.93 |     327.00 |      31.800 |      4361.4 |
 | "Corrected Clusters: size ratio"                |      1212 |   459.2624 |    0.37893 |     0.2852 | -1.8362e-16 |      2.7984 |
CaloFutureDigit2MCLinks2Table          INFO Number of counters : 1
 |    Counter                                      |     #     |    sum     | mean/eff^* | rms/err^*  |     min     |     max     |
 | "#CD2MC links"                                  |        86 |    1418185 |    16491.0 |
CaloFutureMergedPi0                    INFO Number of counters : 12
 |    Counter                                      |     #     |    sum     | mean/eff^* | rms/err^*  |     min     |     max     |
 |*"Cluster without 2nd seed found"                |       577 |          0 |( 0.000000 +- 0.000000)% |
 | "Corrected energy"                              |      1154 |1.366322e+07 |    11840.0 |    13039.0 |      89.955 |  1.4237e+05 |
 |*"Fails to set covariance"                       |        86 |          0 |( 0.000000 +- 0.000000)% |
 |*"Fails to set spread"                           |        86 |          0 |( 0.000000 +- 0.000000)% |
 |*"Fails to tag(E) cluster (1)"                   |       577 |          0 |( 0.000000 +- 0.000000)% |
 |*"Fails to tag(E) cluster (2)"                   |       577 |          0 |( 0.000000 +- 0.000000)% |
 | "Photon Delta(E)"                               |      1154 |  -76329.68 |    -66.144 |     367.21 |     -2653.1 |      3602.0 |
 | "Photon Delta(X)"                               |      1154 |   393.8533 |    0.34129 |     12.909 |     -23.059 |      30.231 |
 | "Photon Delta(Y)"                               |      1154 |   314.2016 |    0.27227 |     13.053 |     -38.303 |      43.174 |
 | "Photon Delta(Z)"                               |      1154 |   90218.94 |     78.179 |     11.000 |      22.807 |      112.49 |
 | "clusters => mergedPi0s"                        |        86 |        577 |     6.7093 |
 | "clusters => splitClusters"                     |        86 |       1154 |     13.419 |
CaloFutureMergedPi0#1                  INFO Number of counters : 12
 |    Counter                                      |     #     |    sum     | mean/eff^* | rms/err^*  |     min     |     max     |
 |*"Cluster without 2nd seed found"                |       577 |          0 |( 0.000000 +- 0.000000)% |
 | "Corrected energy"                              |      1154 |1.366314e+07 |    11840.0 |    13038.0 |      89.955 |  1.4237e+05 |
 |*"Fails to set covariance"                       |        86 |          0 |( 0.000000 +- 0.000000)% |
 |*"Fails to set spread"                           |        86 |          0 |( 0.000000 +- 0.000000)% |
 |*"Fails to tag(E) cluster (1)"                   |       577 |          0 |( 0.000000 +- 0.000000)% |
 |*"Fails to tag(E) cluster (2)"                   |       577 |          0 |( 0.000000 +- 0.000000)% |
 | "Photon Delta(E)"                               |      1154 |  -76435.16 |    -66.235 |     367.33 |     -2653.1 |      3602.0 |
 | "Photon Delta(X)"                               |      1154 |   392.5771 |    0.34019 |     12.910 |     -23.059 |      30.231 |
 | "Photon Delta(Y)"                               |      1154 |   320.4897 |    0.27772 |     13.047 |     -38.303 |      43.174 |
 | "Photon Delta(Z)"                               |      1154 |   90219.89 |     78.180 |     10.999 |      22.807 |      112.49 |
 | "clusters => mergedPi0s"                        |        86 |        577 |     6.7093 |
 | "clusters => splitClusters"                     |        86 |       1154 |     13.419 |
CaloFutureMergedPi0#1.CaloFuture...    INFO Number of counters : 6
 |    Counter                                      |     #     |    sum     | mean/eff^* | rms/err^*  |     min     |     max     |
 | "<alpha> Inner"                                 |       262 |   260.1932 |     0.9931 |   0.020028 |     0.96476 |      1.0803 |
 | "<alpha> Middle"                                |       264 |   265.1878 |     1.0045 |   0.026135 |     0.97673 |      1.1159 |
 | "<alpha> Outer"                                 |       628 |   626.6992 |    0.99793 |   0.019703 |     0.97372 |      1.0940 |
 | "Pileup offset"                                 |      1154 |          0 |     0.0000 |     0.0000 |      0.0000 |      0.0000 |
 | "Pileup scale"                                  |        86 |          0 |     0.0000 |     0.0000 |      0.0000 |      0.0000 |
 | "Pileup subtracted ratio"                       |      1154 |       1154 |     1.0000 |     0.0000 |      1.0000 |      1.0000 |
CaloFutureMergedPi0#1.EcalCovari...    INFO Number of counters : 1
 |    Counter                                      |     #     |    sum     | mean/eff^* | rms/err^*  |     min     |     max     |
 | "parameter updated"                             |         2 |
CaloFutureMergedPi0#1.EcalSpread       INFO Number of counters : 3
 |    Counter                                      |     #     |    sum     | mean/eff^* | rms/err^*  |     min     |     max     |
 | "Corrected Clusters: # cells "                  |       180 |       1129 |     6.2722 |     1.7475 |      3.0000 |      9.0000 |
 | "Corrected Clusters: ET"                        |       180 |   226544.4 |     1258.6 |     1136.4 |      31.600 |      7578.2 |
 | "Corrected Clusters: size ratio"                |       180 |   67.04337 |    0.37246 |    0.34021 |      0.0000 |      2.1427 |
CaloFutureMergedPi0#10                 INFO Number of counters : 12
 |    Counter                                      |     #     |    sum     | mean/eff^* | rms/err^*  |     min     |     max     |
 |*"Cluster without 2nd seed found"                |       577 |          0 |( 0.000000 +- 0.000000)% |
 | "Corrected energy"                              |      1154 |1.373955e+07 |    11906.0 |    13159.0 |      88.364 |  1.4256e+05 |
 |*"Fails to set covariance"                       |        86 |          0 |( 0.000000 +- 0.000000)% |
 |*"Fails to set spread"                           |        86 |          0 |( 0.000000 +- 0.000000)% |
 |*"Fails to tag(E) cluster (1)"                   |       577 |          0 |( 0.000000 +- 0.000000)% |
 |*"Fails to tag(E) cluster (2)"                   |       577 |          0 |( 0.000000 +- 0.000000)% |
 | "Photon Delta(E)"                               |      1154 |          0 |     0.0000 |     0.0000 |      0.0000 |      0.0000 |
 | "Photon Delta(X)"                               |      1154 |          0 |     0.0000 |     0.0000 |      0.0000 |      0.0000 |
 | "Photon Delta(Y)"                               |      1154 |          0 |     0.0000 |     0.0000 |      0.0000 |      0.0000 |
 | "Photon Delta(Z)"                               |      1154 |          0 |     0.0000 |     0.0000 |      0.0000 |      0.0000 |
 | "clusters => mergedPi0s"                        |        86 |        577 |     6.7093 |
 | "clusters => splitClusters"                     |        86 |       1154 |     13.419 |
CaloFutureMergedPi0#10.EcalCovar...    INFO Number of counters : 1
 |    Counter                                      |     #     |    sum     | mean/eff^* | rms/err^*  |     min     |     max     |
 | "parameter updated"                             |         2 |
CaloFutureMergedPi0#10.EcalSpread      INFO Number of counters : 3
 |    Counter                                      |     #     |    sum     | mean/eff^* | rms/err^*  |     min     |     max     |
 | "Corrected Clusters: # cells "                  |       180 |       1129 |     6.2722 |     1.7475 |      3.0000 |      9.0000 |
 | "Corrected Clusters: ET"                        |       180 |   226544.4 |     1258.6 |     1136.4 |      31.600 |      7578.2 |
 | "Corrected Clusters: size ratio"                |       180 |   67.04337 |    0.37246 |     0.3402 |      0.0000 |      2.1427 |
CaloFutureMergedPi0#2                  INFO Number of counters : 12
 |    Counter                                      |     #     |    sum     | mean/eff^* | rms/err^*  |     min     |     max     |
 |*"Cluster without 2nd seed found"                |       577 |          0 |( 0.000000 +- 0.000000)% |
 | "Corrected energy"                              |      1154 |1.366314e+07 |    11840.0 |    13038.0 |      89.955 |  1.4237e+05 |
 |*"Fails to set covariance"                       |        86 |          0 |( 0.000000 +- 0.000000)% |
 |*"Fails to set spread"                           |        86 |          0 |( 0.000000 +- 0.000000)% |
 |*"Fails to tag(E) cluster (1)"                   |       577 |          0 |( 0.000000 +- 0.000000)% |
 |*"Fails to tag(E) cluster (2)"                   |       577 |          0 |( 0.000000 +- 0.000000)% |
 | "Photon Delta(E)"                               |      1154 |  -76435.16 |    -66.235 |     367.33 |     -2653.1 |      3602.0 |
 | "Photon Delta(X)"                               |      1154 |   392.5771 |    0.34019 |     12.910 |     -23.059 |      30.231 |
 | "Photon Delta(Y)"                               |      1154 |   320.4897 |    0.27772 |     13.047 |     -38.303 |      43.174 |
 | "Photon Delta(Z)"                               |      1154 |   90219.89 |     78.180 |     10.999 |      22.807 |      112.49 |
 | "clusters => mergedPi0s"                        |        86 |        577 |     6.7093 |
 | "clusters => splitClusters"                     |        86 |       1154 |     13.419 |
CaloFutureMergedPi0#2.CaloFuture...    INFO Number of counters : 6
 |    Counter                                      |     #     |    sum     | mean/eff^* | rms/err^*  |     min     |     max     |
 | "<alpha> Inner"                                 |       262 |   260.1932 |     0.9931 |   0.020028 |     0.96476 |      1.0803 |
 | "<alpha> Middle"                                |       264 |   265.1878 |     1.0045 |   0.026135 |     0.97673 |      1.1159 |
 | "<alpha> Outer"                                 |       628 |   626.6992 |    0.99793 |   0.019703 |     0.97372 |      1.0940 |
 | "Pileup offset"                                 |      1154 |          0 |     0.0000 |     0.0000 |      0.0000 |      0.0000 |
 | "Pileup scale"                                  |        86 |          0 |     0.0000 |     0.0000 |      0.0000 |      0.0000 |
 | "Pileup subtracted ratio"                       |      1154 |       1154 |     1.0000 |     0.0000 |      1.0000 |      1.0000 |
CaloFutureMergedPi0#2.EcalCovari...    INFO Number of counters : 1
 |    Counter                                      |     #     |    sum     | mean/eff^* | rms/err^*  |     min     |     max     |
 | "parameter updated"                             |         2 |
CaloFutureMergedPi0#2.EcalSpread       INFO Number of counters : 3
 |    Counter                                      |     #     |    sum     | mean/eff^* | rms/err^*  |     min     |     max     |
 | "Corrected Clusters: # cells "                  |       180 |       1129 |     6.2722 |     1.7475 |      3.0000 |      9.0000 |
 | "Corrected Clusters: ET"                        |       180 |   226544.4 |     1258.6 |     1136.4 |      31.600 |      7578.2 |
 | "Corrected Clusters: size ratio"                |       180 |   67.04337 |    0.37246 |    0.34021 |      0.0000 |      2.1427 |
CaloFutureMergedPi0#3                  INFO Number of counters : 12
 |    Counter                                      |     #     |    sum     | mean/eff^* | rms/err^*  |     min     |     max     |
 |*"Cluster without 2nd seed found"                |       577 |          0 |( 0.000000 +- 0.000000)% |
 | "Corrected energy"                              |      1154 |1.359708e+07 |    11783.0 |    13593.0 |      115.53 |  1.6732e+05 |
 |*"Fails to set covariance"                       |        86 |          0 |( 0.000000 +- 0.000000)% |
 |*"Fails to set spread"                           |        86 |          0 |( 0.000000 +- 0.000000)% |
 |*"Fails to tag(E) cluster (1)"                   |       577 |          0 |( 0.000000 +- 0.000000)% |
 |*"Fails to tag(E) cluster (2)"                   |       577 |          0 |( 0.000000 +- 0.000000)% |
 | "Photon Delta(E)"                               |      1154 |  -178651.6 |    -154.81 |     318.61 |     -2797.3 |      1288.8 |
 | "Photon Delta(X)"                               |      1154 |   129.8556 |    0.11253 |     13.832 |     -23.058 |      22.930 |
 | "Photon Delta(Y)"                               |      1154 |   209.1555 |    0.18124 |     13.496 |     -23.059 |      22.930 |
 | "Photon Delta(Z)"                               |      1154 |    89361.7 |     77.436 |     12.162 |      26.401 |      113.06 |
 | "clusters => mergedPi0s"                        |        86 |        577 |     6.7093 |
 | "clusters => splitClusters"                     |        86 |       1154 |     13.419 |
CaloFutureMergedPi0#3.CaloFuture...    INFO Number of counters : 6
 |    Counter                                      |     #     |    sum     | mean/eff^* | rms/err^*  |     min     |     max     |
 | "<alpha> Inner"                                 |       262 |   257.9171 |    0.98442 |   0.014051 |     0.96572 |      1.0414 |
 | "<alpha> Middle"                                |       264 |   261.9346 |    0.99218 |   0.012772 |     0.97675 |      1.0510 |
 | "<alpha> Outer"                                 |       628 |   621.3374 |    0.98939 |   0.012057 |     0.97379 |      1.0384 |
 | "Pileup offset"                                 |      1154 |          0 |     0.0000 |     0.0000 |      0.0000 |      0.0000 |
 | "Pileup scale"                                  |        86 |          0 |     0.0000 |     0.0000 |      0.0000 |      0.0000 |
 | "Pileup subtracted ratio"                       |      1154 |       1154 |     1.0000 |     0.0000 |      1.0000 |      1.0000 |
CaloFutureMergedPi0#3.EcalCovari...    INFO Number of counters : 1
 |    Counter                                      |     #     |    sum     | mean/eff^* | rms/err^*  |     min     |     max     |
 | "parameter updated"                             |         2 |
CaloFutureMergedPi0#3.EcalSpread       INFO Number of counters : 3
 |    Counter                                      |     #     |    sum     | mean/eff^* | rms/err^*  |     min     |     max     |
 | "Corrected Clusters: # cells "                  |       228 |       1191 |     5.2237 |     1.5750 |      3.0000 |      8.0000 |
 | "Corrected Clusters: ET"                        |       228 |   256613.7 |     1125.5 |     1194.2 |      32.200 |      7890.6 |
 | "Corrected Clusters: size ratio"                |       228 |   72.37589 |    0.31744 |    0.22472 |   0.0070256 |      1.2991 |
CaloFutureMergedPi0#4                  INFO Number of counters : 12
 |    Counter                                      |     #     |    sum     | mean/eff^* | rms/err^*  |     min     |     max     |
 |*"Cluster without 2nd seed found"                |       577 |          0 |( 0.000000 +- 0.000000)% |
 | "Corrected energy"                              |      1154 |1.366313e+07 |    11840.0 |    13038.0 |      89.955 |  1.4237e+05 |
 |*"Fails to set covariance"                       |        86 |          0 |( 0.000000 +- 0.000000)% |
 |*"Fails to set spread"                           |        86 |          0 |( 0.000000 +- 0.000000)% |
 |*"Fails to tag(E) cluster (1)"                   |       577 |          0 |( 0.000000 +- 0.000000)% |
 |*"Fails to tag(E) cluster (2)"                   |       577 |          0 |( 0.000000 +- 0.000000)% |
 | "Photon Delta(E)"                               |      1154 |  -76443.84 |    -66.242 |     367.32 |     -2653.1 |      3601.8 |
 | "Photon Delta(X)"                               |      1154 |   392.8534 |    0.34043 |     12.910 |     -23.059 |      30.232 |
 | "Photon Delta(Y)"                               |      1154 |   320.8108 |      0.278 |     13.047 |     -38.299 |      43.174 |
 | "Photon Delta(Z)"                               |      1154 |    90220.1 |     78.180 |     10.999 |      22.807 |      112.47 |
 | "clusters => mergedPi0s"                        |        86 |        577 |     6.7093 |
 | "clusters => splitClusters"                     |        86 |       1154 |     13.419 |
CaloFutureMergedPi0#4.CaloFuture...    INFO Number of counters : 6
 |    Counter                                      |     #     |    sum     | mean/eff^* | rms/err^*  |     min     |     max     |
 | "<alpha> Inner"                                 |       262 |    260.193 |     0.9931 |   0.020027 |     0.96477 |      1.0803 |
 | "<alpha> Middle"                                |       264 |   265.1873 |     1.0045 |   0.026134 |     0.97673 |      1.1160 |
 | "<alpha> Outer"                                 |       628 |    626.698 |    0.99793 |   0.019702 |     0.97372 |      1.0940 |
 | "Pileup offset"                                 |      1154 |          0 |     0.0000 |     0.0000 |      0.0000 |      0.0000 |
 | "Pileup scale"                                  |        86 |          0 |     0.0000 |     0.0000 |      0.0000 |      0.0000 |
 | "Pileup subtracted ratio"                       |      1154 |       1154 |     1.0000 |     0.0000 |      1.0000 |      1.0000 |
CaloFutureMergedPi0#4.EcalCovari...    INFO Number of counters : 1
 |    Counter                                      |     #     |    sum     | mean/eff^* | rms/err^*  |     min     |     max     |
 | "parameter updated"                             |         2 |
CaloFutureMergedPi0#4.EcalSpread       INFO Number of counters : 3
 |    Counter                                      |     #     |    sum     | mean/eff^* | rms/err^*  |     min     |     max     |
 | "Corrected Clusters: # cells "                  |       180 |       1129 |     6.2722 |     1.7475 |      3.0000 |      9.0000 |
 | "Corrected Clusters: ET"                        |       180 |     226543 |     1258.6 |     1136.4 |      31.600 |      7578.2 |
 | "Corrected Clusters: size ratio"                |       180 |   67.03781 |    0.37243 |     0.3402 |      0.0000 |      2.1426 |
CaloFutureMergedPi0#5                  INFO Number of counters : 12
 |    Counter                                      |     #     |    sum     | mean/eff^* | rms/err^*  |     min     |     max     |
 |*"Cluster without 2nd seed found"                |       577 |          0 |( 0.000000 +- 0.000000)% |
 | "Corrected energy"                              |      1154 |1.360436e+07 |    11789.0 |    12985.0 |      148.14 |  1.4243e+05 |
 |*"Fails to set covariance"                       |        86 |          0 |( 0.000000 +- 0.000000)% |
 |*"Fails to set spread"                           |        86 |          0 |( 0.000000 +- 0.000000)% |
 |*"Fails to tag(E) cluster (1)"                   |       577 |          0 |( 0.000000 +- 0.000000)% |
 |*"Fails to tag(E) cluster (2)"                   |       577 |          0 |( 0.000000 +- 0.000000)% |
 | "Photon Delta(E)"                               |      1154 |  -138782.1 |    -120.26 |     347.55 |     -2830.0 |      2296.7 |
 | "Photon Delta(X)"                               |      1154 |  -34.86347 |  -0.030211 |     13.390 |     -23.058 |      22.930 |
 | "Photon Delta(Y)"                               |      1154 |   163.1719 |     0.1414 |     13.320 |     -23.059 |      43.453 |
 | "Photon Delta(Z)"                               |      1154 |   90248.93 |     78.205 |     10.805 |      31.692 |      112.79 |
 | "clusters => mergedPi0s"                        |        86 |        577 |     6.7093 |
 | "clusters => splitClusters"                     |        86 |       1154 |     13.419 |
CaloFutureMergedPi0#5.CaloFuture...    INFO Number of counters : 6
 |    Counter                                      |     #     |    sum     | mean/eff^* | rms/err^*  |     min     |     max     |
 | "<alpha> Inner"                                 |       262 |   259.0689 |    0.98881 |   0.017779 |     0.96505 |      1.0647 |
 | "<alpha> Middle"                                |       264 |   263.7099 |     0.9989 |    0.02252 |     0.97712 |      1.1081 |
 | "<alpha> Outer"                                 |       628 |   623.5886 |    0.99298 |   0.015547 |     0.97392 |      1.0696 |
 | "Pileup offset"                                 |      1154 |          0 |     0.0000 |     0.0000 |      0.0000 |      0.0000 |
 | "Pileup scale"                                  |        86 |          0 |     0.0000 |     0.0000 |      0.0000 |      0.0000 |
 | "Pileup subtracted ratio"                       |      1154 |       1154 |     1.0000 |     0.0000 |      1.0000 |      1.0000 |
CaloFutureMergedPi0#5.EcalCovari...    INFO Number of counters : 1
 |    Counter                                      |     #     |    sum     | mean/eff^* | rms/err^*  |     min     |     max     |
 | "parameter updated"                             |         2 |
CaloFutureMergedPi0#5.EcalSpread       INFO Number of counters : 3
 |    Counter                                      |     #     |    sum     | mean/eff^* | rms/err^*  |     min     |     max     |
 | "Corrected Clusters: # cells "                  |       183 |       1128 |     6.1639 |     1.6939 |      3.0000 |      9.0000 |
 | "Corrected Clusters: ET"                        |       183 |   227657.2 |     1244.0 |     1202.9 |      30.400 |      7684.8 |
 | "Corrected Clusters: size ratio"                |       183 |   66.16475 |    0.36156 |    0.22405 |      0.0000 |      1.4585 |
CaloFutureMergedPi0#6                  INFO Number of counters : 12
 |    Counter                                      |     #     |    sum     | mean/eff^* | rms/err^*  |     min     |     max     |
 |*"Cluster without 2nd seed found"                |       531 |          0 |( 0.000000 +- 0.000000)% |
 | "Corrected energy"                              |      1062 |1.261244e+07 |    11876.0 |    13192.0 |      89.955 |  1.4238e+05 |
 |*"Fails to set covariance"                       |        86 |          0 |( 0.000000 +- 0.000000)% |
 |*"Fails to set spread"                           |        86 |          0 |( 0.000000 +- 0.000000)% |
 |*"Fails to tag(E) cluster (1)"                   |       531 |          0 |( 0.000000 +- 0.000000)% |
 |*"Fails to tag(E) cluster (2)"                   |       531 |          0 |( 0.000000 +- 0.000000)% |
 | "Photon Delta(E)"                               |      1062 |  -77794.17 |    -73.253 |     404.24 |     -2652.5 |      3997.2 |
 | "Photon Delta(X)"                               |      1062 |   78.10294 |   0.073543 |     12.872 |     -23.058 |      30.230 |
 | "Photon Delta(Y)"                               |      1062 |   260.2614 |    0.24507 |     12.854 |     -29.807 |      43.270 |
 | "Photon Delta(Z)"                               |      1062 |   82987.52 |     78.143 |     11.365 |      22.807 |      112.47 |
 | "clusters => mergedPi0s"                        |        86 |        531 |     6.1744 |
 | "clusters => splitClusters"                     |        86 |       1062 |     12.349 |
CaloFutureMergedPi0#6.CaloFuture...    INFO Number of counters : 6
 |    Counter                                      |     #     |    sum     | mean/eff^* | rms/err^*  |     min     |     max     |
 | "<alpha> Inner"                                 |       232 |   230.4477 |    0.99331 |   0.024016 |     0.96564 |      1.1341 |
 | "<alpha> Middle"                                |       256 |   256.8878 |     1.0035 |   0.025807 |     0.97703 |      1.1158 |
 | "<alpha> Outer"                                 |       574 |   571.8423 |    0.99624 |   0.018782 |     0.97372 |      1.0745 |
 | "Pileup offset"                                 |      1062 |          0 |     0.0000 |     0.0000 |      0.0000 |      0.0000 |
 | "Pileup scale"                                  |        86 |          0 |     0.0000 |     0.0000 |      0.0000 |      0.0000 |
 | "Pileup subtracted ratio"                       |      1062 |       1062 |     1.0000 |     0.0000 |      1.0000 |      1.0000 |
CaloFutureMergedPi0#6.EcalCovari...    INFO Number of counters : 1
 |    Counter                                      |     #     |    sum     | mean/eff^* | rms/err^*  |     min     |     max     |
 | "parameter updated"                             |         2 |
CaloFutureMergedPi0#6.EcalSpread       INFO Number of counters : 3
 |    Counter                                      |     #     |    sum     | mean/eff^* | rms/err^*  |     min     |     max     |
 | "Corrected Clusters: # cells "                  |       166 |       1068 |     6.4337 |     1.7229 |      3.0000 |      9.0000 |
 | "Corrected Clusters: ET"                        |       166 |   213141.4 |     1284.0 |     1164.5 |      76.800 |      7578.6 |
 | "Corrected Clusters: size ratio"                |       166 |   54.27347 |    0.32695 |    0.21029 |      0.0000 |      1.6019 |
CaloFutureMergedPi0#7                  INFO Number of counters : 12
 |    Counter                                      |     #     |    sum     | mean/eff^* | rms/err^*  |     min     |     max     |
 |*"Cluster without 2nd seed found"                |       531 |          0 |( 0.000000 +- 0.000000)% |
 | "Corrected energy"                              |      1062 |1.254809e+07 |    11816.0 |    13707.0 |      115.53 |  1.6733e+05 |
 |*"Fails to set covariance"                       |        86 |          0 |( 0.000000 +- 0.000000)% |
 |*"Fails to set spread"                           |        86 |          0 |( 0.000000 +- 0.000000)% |
 |*"Fails to tag(E) cluster (1)"                   |       531 |          0 |( 0.000000 +- 0.000000)% |
 |*"Fails to tag(E) cluster (2)"                   |       531 |          0 |( 0.000000 +- 0.000000)% |
 | "Photon Delta(E)"                               |      1062 |    -173683 |    -163.54 |     340.23 |     -2797.2 |      1288.4 |
 | "Photon Delta(X)"                               |      1062 |  -104.7151 |  -0.098602 |     13.689 |     -23.059 |      22.930 |
 | "Photon Delta(Y)"                               |      1062 |   137.3594 |    0.12934 |     13.363 |     -23.059 |      22.930 |
 | "Photon Delta(Z)"                               |      1062 |   82269.68 |     77.467 |     12.390 |      26.401 |      113.06 |
 | "clusters => mergedPi0s"                        |        86 |        531 |     6.1744 |
 | "clusters => splitClusters"                     |        86 |       1062 |     12.349 |
CaloFutureMergedPi0#7.CaloFuture...    INFO Number of counters : 6
 |    Counter                                      |     #     |    sum     | mean/eff^* | rms/err^*  |     min     |     max     |
 | "<alpha> Inner"                                 |       232 |   228.2624 |    0.98389 |   0.015121 |     0.96572 |      1.0433 |
 | "<alpha> Middle"                                |       256 |   253.9562 |    0.99202 |   0.012938 |     0.97675 |      1.0512 |
 | "<alpha> Outer"                                 |       574 |   567.6305 |     0.9889 |   0.011895 |     0.97379 |      1.0384 |
 | "Pileup offset"                                 |      1062 |          0 |     0.0000 |     0.0000 |      0.0000 |      0.0000 |
 | "Pileup scale"                                  |        86 |          0 |     0.0000 |     0.0000 |      0.0000 |      0.0000 |
 | "Pileup subtracted ratio"                       |      1062 |       1062 |     1.0000 |     0.0000 |      1.0000 |      1.0000 |
CaloFutureMergedPi0#7.EcalCovari...    INFO Number of counters : 1
 |    Counter                                      |     #     |    sum     | mean/eff^* | rms/err^*  |     min     |     max     |
 | "parameter updated"                             |         2 |
CaloFutureMergedPi0#7.EcalSpread       INFO Number of counters : 3
 |    Counter                                      |     #     |    sum     | mean/eff^* | rms/err^*  |     min     |     max     |
 | "Corrected Clusters: # cells "                  |       213 |       1150 |     5.3991 |     1.5731 |      3.0000 |      8.0000 |
 | "Corrected Clusters: ET"                        |       213 |   253872.6 |     1191.9 |     1320.1 |      32.200 |      8778.8 |
 | "Corrected Clusters: size ratio"                |       213 |   62.71317 |    0.29443 |    0.18692 |   0.0070393 |      1.2863 |
CaloFutureMergedPi0.CaloFutureEC...    INFO Number of counters : 6
 |    Counter                                      |     #     |    sum     | mean/eff^* | rms/err^*  |     min     |     max     |
 | "<alpha> Inner"                                 |       262 |   260.1979 |    0.99312 |   0.020033 |     0.96476 |      1.0803 |
 | "<alpha> Middle"                                |       264 |   265.1879 |     1.0045 |   0.026136 |     0.97673 |      1.1159 |
 | "<alpha> Outer"                                 |       628 |    626.692 |    0.99792 |   0.019696 |     0.97372 |      1.0940 |
 | "Pileup offset"                                 |      1154 |          0 |     0.0000 |     0.0000 |      0.0000 |      0.0000 |
 | "Pileup scale"                                  |        86 |          0 |     0.0000 |     0.0000 |      0.0000 |      0.0000 |
 | "Pileup subtracted ratio"                       |      1154 |       1154 |     1.0000 |     0.0000 |      1.0000 |      1.0000 |
CaloFutureMergedPi0.EcalCovariance     INFO Number of counters : 1
 |    Counter                                      |     #     |    sum     | mean/eff^* | rms/err^*  |     min     |     max     |
 | "parameter updated"                             |         2 |
CaloFutureMergedPi0.EcalSpread         INFO Number of counters : 3
 |    Counter                                      |     #     |    sum     | mean/eff^* | rms/err^*  |     min     |     max     |
 | "Corrected Clusters: # cells "                  |       180 |       1129 |     6.2722 |     1.7475 |      3.0000 |      9.0000 |
 | "Corrected Clusters: ET"                        |       180 |   226544.4 |     1258.6 |     1136.4 |      31.600 |      7578.2 |
 | "Corrected Clusters: size ratio"                |       180 |   67.04337 |    0.37246 |     0.3402 |      0.0000 |      2.1427 |
CaloFutureShowerOverlap                INFO Number of counters : 5
 |    Counter                                      |     #     |    sum     | mean/eff^* | rms/err^*  |     min     |     max     |
 | "Delta(E)"                                      |     22631 |  -705051.6 |    -31.154 |     996.16 |    -19903.0 |     11937.0 |
 | "Delta(X)"                                      |     22631 |   113.4556 |  0.0050133 |     5.2266 |     -62.431 |      52.908 |
 | "Delta(Y)"                                      |     22631 |   692.6362 |   0.030606 |     5.0925 |     -75.964 |      58.306 |
 | "Delta(Z)"                                      |     22631 |-6.002665e-11 |-2.6524e-15 | 1.1147e-12 | -1.8190e-12 |  1.8190e-12 |
 | "negative E clusters (removed)"                 |        86 |          0 |     0.0000 |     0.0000 |      0.0000 |      0.0000 |
CaloFutureShowerOverlapFast            INFO Number of counters : 5
 |    Counter                                      |     #     |    sum     | mean/eff^* | rms/err^*  |     min     |     max     |
 | "Delta(E)"                                      |     22631 |  -705050.6 |    -31.154 |     996.16 |    -19903.0 |     11937.0 |
 | "Delta(X)"                                      |     22631 |   113.2751 |  0.0050053 |     5.2266 |     -62.431 |      52.908 |
 | "Delta(Y)"                                      |     22631 |   692.5397 |   0.030601 |     5.0925 |     -75.964 |      58.328 |
 | "Delta(Z)"                                      |     22631 |-6.002665e-11 |-2.6524e-15 | 1.1147e-12 | -1.8190e-12 |  1.8190e-12 |
 | "negative E clusters (removed)"                 |        86 |          0 |     0.0000 |     0.0000 |      0.0000 |      0.0000 |
CaloFutureShowerOverlapNoCor           INFO Number of counters : 5
 |    Counter                                      |     #     |    sum     | mean/eff^* | rms/err^*  |     min     |     max     |
 | "Delta(E)"                                      |     22631 |  -705050.6 |    -31.154 |     996.16 |    -19903.0 |     11937.0 |
 | "Delta(X)"                                      |     22631 |   113.2751 |  0.0050053 |     5.2266 |     -62.431 |      52.908 |
 | "Delta(Y)"                                      |     22631 |   692.5397 |   0.030601 |     5.0925 |     -75.964 |      58.328 |
 | "Delta(Z)"                                      |     22631 |-6.002665e-11 |-2.6524e-15 | 1.1147e-12 | -1.8190e-12 |  1.8190e-12 |
 | "negative E clusters (removed)"                 |        86 |          0 |     0.0000 |     0.0000 |      0.0000 |      0.0000 |
CaloFutureShowerOverlapNoOverlap       INFO Number of counters : 5
 |    Counter                                      |     #     |    sum     | mean/eff^* | rms/err^*  |     min     |     max     |
 | "Delta(E)"                                      |     22631 |   -4759991 |    -210.33 |     802.46 |    -19255.0 |      1189.6 |
 | "Delta(X)"                                      |     22631 |   59.15572 |  0.0026139 |     4.5782 |     -49.351 |      69.240 |
 | "Delta(Y)"                                      |     22631 |  -20.04498 |-0.00088573 |     4.3334 |     -53.324 |      59.039 |
 | "Delta(Z)"                                      |     22631 |-6.002665e-11 |-2.6524e-15 | 1.1147e-12 | -1.8190e-12 |  1.8190e-12 |
 | "negative E clusters (removed)"                 |        86 |          0 |     0.0000 |     0.0000 |      0.0000 |      0.0000 |
CaloHypoResolution-clusDef-pi0Def      INFO Number of counters : 4
 |    Counter                                      |     #     |    sum     | mean/eff^* | rms/err^*  |     min     |     max     |
 | "DeltaEOverE"                                   |        66 |  -6.464949 |  -0.097954 |    0.62533 |    -0.87684 |      3.9811 |
 | "DeltaX"                                        |        66 |   3475.731 |     52.663 |     353.73 |     -921.29 |      1341.9 |
 | "DeltaY"                                        |        66 |  -1186.927 |    -17.984 |     121.02 |     -354.03 |      350.43 |
 |*"Matched"                                       |       577 |         66 |( 11.43847 +- 1.325009)% |
CaloHypoResolution-clusDef-pi0NoCor    INFO Number of counters : 4
 |    Counter                                      |     #     |    sum     | mean/eff^* | rms/err^*  |     min     |     max     |
 | "DeltaEOverE"                                   |        66 |  -6.464949 |  -0.097954 |    0.62533 |    -0.87684 |      3.9811 |
 | "DeltaX"                                        |        66 |   3475.731 |     52.663 |     353.73 |     -921.29 |      1341.9 |
 | "DeltaY"                                        |        66 |  -1186.927 |    -17.984 |     121.02 |     -354.03 |      350.43 |
 |*"Matched"                                       |       577 |         66 |( 11.43847 +- 1.325009)% |
CaloHypoResolution-clusNoSO-pi0Def     INFO Number of counters : 4
 |    Counter                                      |     #     |    sum     | mean/eff^* | rms/err^*  |     min     |     max     |
 | "DeltaEOverE"                                   |        63 |  -5.841583 |  -0.092724 |    0.60225 |    -0.87944 |      3.6904 |
 | "DeltaX"                                        |        63 |   1917.026 |     30.429 |     333.63 |     -920.64 |      1347.8 |
 | "DeltaY"                                        |        63 |  -830.1523 |    -13.177 |     116.51 |     -347.30 |      350.74 |
 |*"Matched"                                       |       531 |         63 |( 11.86441 +- 1.403303)% |
CaloHypoResolution-clusNoSO-pi0NoSO    INFO Number of counters : 4
 |    Counter                                      |     #     |    sum     | mean/eff^* | rms/err^*  |     min     |     max     |
 | "DeltaEOverE"                                   |        63 |  -5.841583 |  -0.092724 |    0.60225 |    -0.87944 |      3.6904 |
 | "DeltaX"                                        |        63 |   1917.026 |     30.429 |     333.63 |     -920.64 |      1347.8 |
 | "DeltaY"                                        |        63 |  -830.1523 |    -13.177 |     116.51 |     -347.30 |      350.74 |
 |*"Matched"                                       |       531 |         63 |( 11.86441 +- 1.403303)% |
CaloHypoResolution-clusSOFast-pi...    INFO Number of counters : 4
 |    Counter                                      |     #     |    sum     | mean/eff^* | rms/err^*  |     min     |     max     |
 | "DeltaEOverE"                                   |        66 |  -6.464945 |  -0.097954 |    0.62533 |    -0.87684 |      3.9811 |
 | "DeltaX"                                        |        66 |   3475.731 |     52.663 |     353.73 |     -921.29 |      1341.9 |
 | "DeltaY"                                        |        66 |  -1186.926 |    -17.984 |     121.02 |     -354.03 |      350.43 |
 |*"Matched"                                       |       577 |         66 |( 11.43847 +- 1.325009)% |
CaloHypoResolution-clusSONoCor-p...    INFO Number of counters : 4
 |    Counter                                      |     #     |    sum     | mean/eff^* | rms/err^*  |     min     |     max     |
 | "DeltaEOverE"                                   |        66 |  -6.464945 |  -0.097954 |    0.62533 |    -0.87684 |      3.9811 |
 | "DeltaX"                                        |        66 |   3475.731 |     52.663 |     353.73 |     -921.29 |      1341.9 |
 | "DeltaY"                                        |        66 |  -1186.926 |    -17.984 |     121.02 |     -354.03 |      350.43 |
 |*"Matched"                                       |       577 |         66 |( 11.43847 +- 1.325009)% |
CaloHypoResolution-clusSONoCor-p...    INFO Number of counters : 4
 |    Counter                                      |     #     |    sum     | mean/eff^* | rms/err^*  |     min     |     max     |
 | "DeltaEOverE"                                   |        66 |  -6.464945 |  -0.097954 |    0.62533 |    -0.87684 |      3.9811 |
 | "DeltaX"                                        |        66 |   3475.731 |     52.663 |     353.73 |     -921.29 |      1341.9 |
 | "DeltaY"                                        |        66 |  -1186.926 |    -17.984 |     121.02 |     -354.03 |      350.43 |
 |*"Matched"                                       |       577 |         66 |( 11.43847 +- 1.325009)% |
CaloHypoResolution-clusSONoCor-p...    INFO Number of counters : 4
 |    Counter                                      |     #     |    sum     | mean/eff^* | rms/err^*  |     min     |     max     |
 | "DeltaEOverE"                                   |        66 |  -6.464945 |  -0.097954 |    0.62533 |    -0.87684 |      3.9811 |
 | "DeltaX"                                        |        66 |   3475.731 |     52.663 |     353.73 |     -921.29 |      1341.9 |
 | "DeltaY"                                        |        66 |  -1186.926 |    -17.984 |     121.02 |     -354.03 |      350.43 |
 |*"Matched"                                       |       577 |         66 |( 11.43847 +- 1.325009)% |
CaloHypoResolution-clusSONoCor-p...    INFO Number of counters : 4
 |    Counter                                      |     #     |    sum     | mean/eff^* | rms/err^*  |     min     |     max     |
 | "DeltaEOverE"                                   |        66 |  -6.464945 |  -0.097954 |    0.62533 |    -0.87684 |      3.9811 |
 | "DeltaX"                                        |        66 |   3475.731 |     52.663 |     353.73 |     -921.29 |      1341.9 |
 | "DeltaY"                                        |        66 |  -1186.926 |    -17.984 |     121.02 |     -354.03 |      350.43 |
 |*"Matched"                                       |       577 |         66 |( 11.43847 +- 1.325009)% |
FutureCellularAutomatonAlg             INFO Number of counters : 4
 |    Counter                                      |     #     |    sum     | mean/eff^* | rms/err^*  |     min     |     max     |
 | "# clusterization passes"                       |        86 |        310 |     3.6047 |    0.61529 |      2.0000 |      5.0000 |
 | "# clusters"                                    |        86 |      17551 |     204.08 |     63.190 |      26.000 |      323.00 |
 | "Cluster energy"                                |     17551 |9.353769e+07 |     5329.5 |     7663.5 |      121.80 |  2.3355e+05 |
 | "Cluster size"                                  |     17551 |     218136 |     12.429 |     3.6686 |      4.0000 |      38.000 |
FutureEcalZSup                         INFO Number of counters : 1
 |    Counter                                      |     #     |    sum     | mean/eff^* | rms/err^*  |     min     |     max     |
 |*"No bank found"                                 |        86 |          0 |( 0.000000 +- 0.000000)% |
PrGECFilter                            INFO Number of counters : 2
 |    Counter                                      |     #     |    sum     | mean/eff^* | rms/err^*  |     min     |     max     |
 | "Nb Events Processed"                           |       100 |
 | "Nb events removed"                             |        14 |
